[gd_scene load_steps=8 format=2]

[ext_resource path="res://Scripts/Barrier.gd" type="Script" id=1]
[ext_resource path="res://Assets/Images/monkey-01.png" type="Texture" id=2]
[ext_resource path="res://Assets/Images/monkey-02.png" type="Texture" id=3]
[ext_resource path="res://Assets/Images/monkey-03.png" type="Texture" id=4]
[ext_resource path="res://Assets/Images/monkey-04.png" type="Texture" id=5]

[sub_resource type="SpriteFrames" id=1]
animations = [ {
"frames": [ ExtResource( 2 ), ExtResource( 3 ), ExtResource( 4 ), ExtResource( 5 ), ExtResource( 4 ), ExtResource( 3 ) ],
"loop": true,
"name": "Walk",
"speed": 5.0
} ]

[sub_resource type="RectangleShape2D" id=2]
extents = Vector2( 18.2001, 20.1145 )

[node name="Area2D2" type="Area2D"]
script = ExtResource( 1 )

[node name="AnimatedSprite" type="AnimatedSprite" parent="."]
position = Vector2( 42.0588, 42.0588 )
scale = Vector2( 0.203178, 0.203178 )
frames = SubResource( 1 )
animation = "Walk"
frame = 4
playing = true

[node name="CollisionShape2D" type="CollisionShape2D" parent="."]
position = Vector2( 43.6379, 52.3113 )
shape = SubResource( 2 )
[connection signal="body_entered" from="." to="." method="_on_Area2D2_body_entered"]
